{
  "id": 7610,
  "date": "2024-02-15T21:37:48",
  "date_gmt": "2024-02-15T21:37:48",
  "guid": {
    "rendered": "https:\/\/gaworski.net\/index.php\/2024\/02\/15\/ko-flow-test-1708033068\/",
    "raw": "https:\/\/gaworski.net\/index.php\/2024\/02\/15\/ko-flow-test-1708033068\/"
  },
  "modified": "2024-02-15T21:37:48",
  "modified_gmt": "2024-02-15T21:37:48",
  "password": "",
  "slug": "ko-flow-test-1708033068",
  "status": "publish",
  "type": "post",
  "link": "https:\/\/gaworski.net\/index.php\/2024\/02\/15\/ko-flow-test-1708033068\/",
  "title": {
    "raw": "KO - FLOW Test 1708033068",
    "rendered": "KO &#8211; FLOW Test 1708033068"
  },
  "content": {
    "raw": "Non est adipisci dolore porro. Eius voluptatem dolorem quiquia. Sit porro sed dolorem. Aliquam quisquam dolorem neque. Dolor quisquam labore modi quiquia consectetur. Velit porro velit velit dolor. Numquam consectetur tempora ipsum sed est porro neque. Velit consectetur eius est.",
    "rendered": "<p>Non est adipisci dolore porro. Eius voluptatem dolorem quiquia. Sit porro sed dolorem. Aliquam quisquam dolorem neque. Dolor quisquam labore modi quiquia consectetur. Velit porro velit velit dolor. Numquam consectetur tempora ipsum sed est porro neque. Velit consectetur eius est.<\/p>\n",
    "protected": false,
    "block_version": 0
  },
  "excerpt": {
    "raw": "Labore velit quaerat aliquam.",
    "rendered": "<p>Labore velit quaerat aliquam.<\/p>\n",
    "protected": false
  },
  "author": 2,
  "featured_media": 0,
  "comment_status": "open",
  "ping_status": "open",
  "sticky": false,
  "template": "",
  "format": "standard",
  "meta": {
    "footnotes": ""
  },
  "categories": [
    1
  ],
  "tags": [],
  "permalink_template": "https:\/\/gaworski.net\/index.php\/2024\/02\/15\/%postname%\/",
  "generated_slug": "ko-flow-test-1708033068",
  "_links": {
    "self": [
      {
        "href": "https:\/\/gaworski.net\/index.php\/wp-json\/wp\/v2\/posts\/7610"
      }
    ],
    "collection": [
      {
        "href": "https:\/\/gaworski.net\/index.php\/wp-json\/wp\/v2\/posts"
      }
    ],
    "about": [
      {
        "href": "https:\/\/gaworski.net\/index.php\/wp-json\/wp\/v2\/types\/post"
      }
    ],
    "author": [
      {
        "embeddable": true,
        "href": "https:\/\/gaworski.net\/index.php\/wp-json\/wp\/v2\/users\/2"
      }
    ],
    "replies": [
      {
        "embeddable": true,
        "href": "https:\/\/gaworski.net\/index.php\/wp-json\/wp\/v2\/comments?post=7610"
      }
    ],
    "version-history": [
      {
        "count": 0,
        "href": "https:\/\/gaworski.net\/index.php\/wp-json\/wp\/v2\/posts\/7610\/revisions"
      }
    ],
    "wp:attachment": [
      {
        "href": "https:\/\/gaworski.net\/index.php\/wp-json\/wp\/v2\/media?parent=7610"
      }
    ],
    "wp:term": [
      {
        "taxonomy": "category",
        "embeddable": true,
        "href": "https:\/\/gaworski.net\/index.php\/wp-json\/wp\/v2\/categories?post=7610"
      },
      {
        "taxonomy": "post_tag",
        "embeddable": true,
        "href": "https:\/\/gaworski.net\/index.php\/wp-json\/wp\/v2\/tags?post=7610"
      }
    ],
    "wp:action-publish": [
      {
        "href": "https:\/\/gaworski.net\/index.php\/wp-json\/wp\/v2\/posts\/7610"
      }
    ],
    "wp:action-unfiltered-html": [
      {
        "href": "https:\/\/gaworski.net\/index.php\/wp-json\/wp\/v2\/posts\/7610"
      }
    ],
    "wp:action-sticky": [
      {
        "href": "https:\/\/gaworski.net\/index.php\/wp-json\/wp\/v2\/posts\/7610"
      }
    ],
    "wp:action-assign-author": [
      {
        "href": "https:\/\/gaworski.net\/index.php\/wp-json\/wp\/v2\/posts\/7610"
      }
    ],
    "wp:action-create-categories": [
      {
        "href": "https:\/\/gaworski.net\/index.php\/wp-json\/wp\/v2\/posts\/7610"
      }
    ],
    "wp:action-assign-categories": [
      {
        "href": "https:\/\/gaworski.net\/index.php\/wp-json\/wp\/v2\/posts\/7610"
      }
    ],
    "wp:action-create-tags": [
      {
        "href": "https:\/\/gaworski.net\/index.php\/wp-json\/wp\/v2\/posts\/7610"
      }
    ],
    "wp:action-assign-tags": [
      {
        "href": "https:\/\/gaworski.net\/index.php\/wp-json\/wp\/v2\/posts\/7610"
      }
    ],
    "curies": [
      {
        "name": "wp",
        "href": "https:\/\/api.w.org\/{rel}",
        "templated": true
      }
    ]
  }
}